{
  "noteCodes": [
    {
      "id": "1",
      "value": "BKT",
      "description": "Description",
      "show": true,
      "createdDate": "2021-11-26T00:00:00.000Z"
    },
    {
      "id": "2",
      "value": "CBK",
      "description": "Lorem ipsum dolor sit amet, consectetur adipiscing elit. Cras feugiat ut nibh et lacinia. Sed posuere vitae sem a sollicitudin. Morbi blandit venenatis massa a commodo. Nullam tristique quis urna vitae lobortis. Nunc auctor risus nec mi vulputate, ac rhoncus turpis molestie. Maecenas dignissim consectetur purus ut sodales. Etiam suscipit turpis a malesuada pellentesque. Morbi placerat pulvinar ante, et sodales libero sollicitudin consectetur. Maecenas non consequat nisl. Cras suscipit eros odio, et condimentum orci elementum at. Proin eros dolor, congue vitae arcu a, cursus tincidunt augue. Vivamus tincidunt mi et augue fermentum viverra. Curabitur auctor lobortis feugiat.",
      "show": true,
      "createdDate": "2021-11-25T03:00:00.000Z"
    },
    {
      "id": "3",
      "value": "DEC",
      "description": "Lorem ipsum dolor sit amet, consectetur adipiscing elit. Cras feugiat ut nibh et lacinia. Sed posuere vitae sem a sollicitudin. Morbi blandit venenatis massa a commodo. Nullam tristique quis urna vitae lobortis. Nunc auctor risus nec mi vulputate, ac rhoncus turpis molestie. Maecenas dignissim consectetur purus ut sodales. Etiam suscipit turpis a malesuada pellentesque. Morbi placerat pulvinar ante, et sodales libero sollicitudin consectetur. Maecenas non consequat nisl. Cras suscipit eros odio, et condimentum orci elementum at. Proin eros dolor, congue vitae arcu a, cursus tincidunt augue. Vivamus tincidunt mi et augue fermentum viverra. Curabitur auctor lobortis feugiat.",
      "show": true,
      "createdDate": "2021-11-25T02:00:00.000Z"
    },
    {
      "id": "4",
      "value": "CDC",
      "description": "Description",
      "show": true,
      "createdDate": "2021-11-24T01:00:00.000Z"
    },
    {
      "id": "5",
      "value": "PTP",
      "description": "Promise To Pay",
      "show": true,
      "createdDate": "2021-11-24T00:00:00.000Z"
    },
    {
      "id": "6",
      "value": "BKT",
      "description": "Description",
      "show": true,
      "createdDate": "2021-11-23T00:00:00.000Z"
    },
    {
      "id": "7",
      "value": "CBK",
      "description": "Lorem ipsum dolor sit amet, consectetur adipiscing elit. Cras feugiat ut nibh et lacinia. Sed posuere vitae sem a sollicitudin. Morbi blandit venenatis massa a commodo. Nullam tristique quis urna vitae lobortis. Nunc auctor risus nec mi vulputate, ac rhoncus turpis molestie. Maecenas dignissim consectetur purus ut sodales. Etiam suscipit turpis a malesuada pellentesque. Morbi placerat pulvinar ante, et sodales libero sollicitudin consectetur. Maecenas non consequat nisl. Cras suscipit eros odio, et condimentum orci elementum at. Proin eros dolor, congue vitae arcu a, cursus tincidunt augue. Vivamus tincidunt mi et augue fermentum viverra. Curabitur auctor lobortis feugiat.",
      "show": true,
      "createdDate": "2021-11-15T03:00:00.000Z"
    },
    {
      "id": "8",
      "value": "DEC",
      "description": "Lorem ipsum dolor sit amet, consectetur adipiscing elit. Cras feugiat ut nibh et lacinia. Sed posuere vitae sem a sollicitudin. Morbi blandit venenatis massa a commodo. Nullam tristique quis urna vitae lobortis. Nunc auctor risus nec mi vulputate, ac rhoncus turpis molestie. Maecenas dignissim consectetur purus ut sodales. Etiam suscipit turpis a malesuada pellentesque. Morbi placerat pulvinar ante, et sodales libero sollicitudin consectetur. Maecenas non consequat nisl. Cras suscipit eros odio, et condimentum orci elementum at. Proin eros dolor, congue vitae arcu a, cursus tincidunt augue. Vivamus tincidunt mi et augue fermentum viverra. Curabitur auctor lobortis feugiat.",
      "show": true,
      "createdDate": "2021-11-15T02:00:00.000Z"
    },
    {
      "id": "9",
      "value": "CDC",
      "description": "Description",
      "show": true,
      "createdDate": "2021-11-15T01:00:00.000Z"
    },
    {
      "id": "10",
      "value": "PTP",
      "description": "Promise To Pay",
      "show": true,
      "createdDate": "2021-11-15T00:00:00.000Z"
    },
    {
      "id": "11",
      "value": "BKT",
      "description": "Description",
      "show": true,
      "createdDate": "2021-11-05T09:00:00.000Z"
    },
    {
      "id": "12",
      "value": "CBK",
      "description": "Lorem ipsum dolor sit amet, consectetur adipiscing elit. Cras feugiat ut nibh et lacinia. Sed posuere vitae sem a sollicitudin. Morbi blandit venenatis massa a commodo. Nullam tristique quis urna vitae lobortis. Nunc auctor risus nec mi vulputate, ac rhoncus turpis molestie. Maecenas dignissim consectetur purus ut sodales. Etiam suscipit turpis a malesuada pellentesque. Morbi placerat pulvinar ante, et sodales libero sollicitudin consectetur. Maecenas non consequat nisl. Cras suscipit eros odio, et condimentum orci elementum at. Proin eros dolor, congue vitae arcu a, cursus tincidunt augue. Vivamus tincidunt mi et augue fermentum viverra. Curabitur auctor lobortis feugiat.",
      "show": true,
      "createdDate": "2021-11-05T03:00:00.000Z"
    },
    {
      "id": "13",
      "value": "DEC",
      "description": "Lorem ipsum dolor sit amet, consectetur adipiscing elit. Cras feugiat ut nibh et lacinia. Sed posuere vitae sem a sollicitudin. Morbi blandit venenatis massa a commodo. Nullam tristique quis urna vitae lobortis. Nunc auctor risus nec mi vulputate, ac rhoncus turpis molestie. Maecenas dignissim consectetur purus ut sodales. Etiam suscipit turpis a malesuada pellentesque. Morbi placerat pulvinar ante, et sodales libero sollicitudin consectetur. Maecenas non consequat nisl. Cras suscipit eros odio, et condimentum orci elementum at. Proin eros dolor, congue vitae arcu a, cursus tincidunt augue. Vivamus tincidunt mi et augue fermentum viverra. Curabitur auctor lobortis feugiat.",
      "show": true,
      "createdDate": "2021-11-05T02:00:00.000Z"
    },
    {
      "id": "14",
      "value": "CDC",
      "description": "Description",
      "show": true,
      "createdDate": "2021-11-05T01:00:00.000Z"
    },
    {
      "id": "15",
      "value": "PTP",
      "description": "Promise To Pay",
      "show": true,
      "createdDate": "2021-11-05T00:00:00.000Z"
    }
  ]
}
