[
  {
    "id": "1",
    "debtorName": "Smith jackie",
    "accountNumber": "022002••••••1490",
    "accNumber": {
      "accountNumber": "022002••••••1490",
      "accountNumberUnMask": "0220022004341490"
    },
    "ssn": "123-45-6789",
    "originalLoanNbr": "022000••••••0000",
    "originalLoan": {
      "accountNumber": "022000••••••0000",
      "accountNumberUnMask": "02200033555773110000"
    },
    "statusType": "A",
    "status": "active",
    "agencyCode": "ATY001",
    "feeCode": "000",
    "lastRunDate": "11/01/2021",
    "lastActivityDate": "11/01/2021",
    "reasonCode": "DEF - Default",
    "collectorCode": "ATY001",
    "statusCode": "B13",
    "credit": "97",
    "accountType": "DEF - Default",
    "accountClass": "DEF - Default",
    "paymentSchedule": "Y - Yes, the account has a payment schedule",
    "paymentScheduleFrequency": "30 days",
    "paymentScheduleStartDate": "01/01/2022",
    "paymentAmount": "10000.00",
    "statusCodeDate": "03/07/2022",
    "dateOfMostRecentMemo": "03/07/2022",
    "lastPaymentDate": "06/11/2020",
    "dateAccountOpened": "01/01/2022",
    "lowestFinancialHierachyReportingLevel": "123456 - Description",
    "collectorAssignedCode": "BKTWHS - Bankruptcy",
    "agencyAssignmentDate": "01/01/2022",
    "masterCalendarCode": "CAS - Check Assets",
    "masterCalendarDate": "01/01/2022",
    "agencyFees": "500.00",
    "accountBalance": "10000.00"
  },
  {
    "id": "2",
    "debtorName": "Smith Love",
    "accountNumber": "022002••••••1491",
    "accNumber": {
      "accountNumber": "022002••••••1491",
      "accountNumberUnMask": "0220022004341491"
    },
    "ssn": "123-45-4435",
    "originalLoanNbr": "022000••••••0001",
    "originalLoan": {
      "accountNumber": "022000••••••0001",
      "accountNumberUnMask": "02200033555773110001"
    },
    "statusType": "A",
    "status": "active",
    "agencyCode": "999",
    "feeCode": "000",
    "lastRunDate": "11/01/2021",
    "lastActivityDate": "11/01/2021",
    "reasonCode": "DEF - Default",
    "collectorCode": "ATY001",
    "statusCode": "B13",
    "credit": "97",
    "accountType": "DEF - Default",
    "accountClass": "DEF - Default",
    "paymentSchedule": "Y - Yes, the account has a payment schedule",
    "paymentScheduleFrequency": "30 days",
    "paymentScheduleStartDate": "01/01/2022",
    "paymentAmount": "10000.00",
    "statusCodeDate": "03/07/2022",
    "dateOfMostRecentMemo": "03/07/2022",
    "lastPaymentDate": "06/11/2020",
    "dateAccountOpened": "01/01/2022",
    "lowestFinancialHierachyReportingLevel": "123456 - Description",
    "collectorAssignedCode": "BKTWHS - Bankruptcy",
    "agencyAssignmentDate": "01/01/2022",
    "masterCalendarCode": "CAS - Check Assets",
    "masterCalendarDate": "01/01/2022",
    "agencyFees": "500.00",
    "accountBalance": "10000.00"
  },
  {
    "id": "3",
    "debtorName": "Smith Smith",
    "accountNumber": "022002••••••1492",
    "accNumber": {
      "accountNumber": "022002••••••1492",
      "accountNumberUnMask": "0220022004341492"
    },
    "ssn": "123-45-2222",
    "originalLoanNbr": "022000••••••0002",
    "originalLoan": {
      "accountNumber": "022000••••••0002",
      "accountNumberUnMask": "02200033555773110002"
    },
    "statusType": "B",
    "status": "purged",
    "agencyCode": "ATY001",
    "feeCode": "000",
    "lastRunDate": "11/01/2021",
    "lastActivityDate": "11/01/2021",
    "reasonCode": "DEF - Default",
    "collectorCode": "ATY001",
    "statusCode": "B13",
    "credit": "97",
    "accountType": "DEF - Default",
    "accountClass": "DEF - Default",
    "paymentSchedule": "Y - Yes, the account has a payment schedule",
    "paymentScheduleFrequency": "30 days",
    "paymentScheduleStartDate": "01/01/2022",
    "paymentAmount": "10000.00",
    "statusCodeDate": "03/07/2022",
    "dateOfMostRecentMemo": "03/07/2022",
    "lastPaymentDate": "06/11/2020",
    "dateAccountOpened": "01/01/2022",
    "lowestFinancialHierachyReportingLevel": "123456 - Description",
    "collectorAssignedCode": "BKTWHS - Bankruptcy",
    "agencyAssignmentDate": "01/01/2022",
    "masterCalendarCode": "CAS - Check Assets",
    "masterCalendarDate": "01/01/2022",
    "agencyFees": "500.00",
    "accountBalance": "10000.00"
  },
  {
    "id": "4",
    "debtorName": "Smith James",
    "accountNumber": "022002••••••1493",
    "accNumber": {
      "accountNumber": "022002••••••1493",
      "accountNumberUnMask": "0220022004341493"
    },
    "ssn": "123-45-4444",
    "originalLoanNbr": "022000••••••0003",
    "originalLoan": {
      "accountNumber": "022000••••••0003",
      "accountNumberUnMask": "02200033555773110003"
    },
    "statusType": "B",
    "status": "purged",
    "agencyCode": "ATY001",
    "feeCode": "",
    "lastRunDate": "11/01/2021",
    "lastActivityDate": "11/01/2021",
    "reasonCode": "",
    "collectorCode": "ATY001",
    "statusCode": "B13",
    "credit": "97",
    "accountType": "DEF - Default",
    "accountClass": "DEF - Default",
    "paymentSchedule": "Y - Yes, the account has a payment schedule",
    "paymentScheduleFrequency": "30 days",
    "paymentScheduleStartDate": "01/01/2022",
    "paymentAmount": "10000.00",
    "statusCodeDate": "03/07/2022",
    "dateOfMostRecentMemo": "03/07/2022",
    "lastPaymentDate": "06/11/2020",
    "dateAccountOpened": "01/01/2022",
    "lowestFinancialHierachyReportingLevel": "123456 - Description",
    "collectorAssignedCode": "BKTWHS - Bankruptcy",
    "agencyAssignmentDate": "01/01/2022",
    "masterCalendarCode": "CAS - Check Assets",
    "masterCalendarDate": "01/01/2022",
    "agencyFees": "500.00",
    "accountBalance": "10000.00"
  }
]
