[
  {
    "id": "1",
    "debtorName": "Smith Jackies",
    "ssn": "123-45-5435",
    "addressLineOne": "4180 Us Hwy",
    "addressLineTwo": "Jacksonville",
    "zipCode": "41803",
    "state": "WA",
    "dob": "12/29/1980",
    "maritalStatus": "Married",
    "homePhone": "(222) 499-2222",
    "mobilePhone": "(932) 499-9329",
    "county": "Maricopa",
    "addressFlag": "D - Data reporter's default address",
    "piid":"0220020009150021"
  },
  {
    "id": "2",
    "debtorName": "Jackie love",
    "ssn": "123-45-4344",
    "addressLineOne": "3350 Canada",
    "addressLineTwo": "Wyoming",
    "zipCode": "41821",
    "state": "NY",
    "dob": "12/29/1980",
    "maritalStatus": "Married",
    "homePhone": "(222) 499-2222",
    "mobilePhone": "(932) 499-9329",
    "county": "Maricopa",
    "addressFlag": "D - Data reporter's default address",
    "piid":"0220020009150059"
  },
  {
    "id": "3",
    "debtorName": "Smith Smith",
    "ssn": "123-45-4242",
    "addressLineOne": "3370 Manley",
    "addressLineTwo": "Wyoming",
    "zipCode": "41803",
    "state": "NY",
    "dob": "12/29/1980",
    "maritalStatus": "Married",
    "homePhone": "(222) 499-2222",
    "mobilePhone": "(932) 499-9329",
    "county": "Maricopa",
    "addressFlag": "D - Data reporter's default address",
    "piid":"0220020009150000"
  },
  {
    "id": "4",
    "debtorName": "Smith Sam",
    "ssn": "123-45-4349",
    "addressLineOne": "3350 New York",
    "addressLineTwo": "Wyoming",
    "zipCode": "41807",
    "state": "NY",
    "dob": "12/29/1980",
    "maritalStatus": "Married",
    "homePhone": "(222) 499-2222",
    "mobilePhone": "(932) 499-9329",
    "county": "Maricopa",
    "addressFlag": "D - Data reporter's default address",
    "piid":"0220020009150047"
  },
  {
    "id": "5",
    "debtorName": "Smith Jame",
    "ssn": "123-45-4399",
    "addressLineOne": "3322 New York",
    "addressLineTwo": "City",
    "zipCode": "33333",
    "state": "NY",
    "dob": "12/29/1980",
    "maritalStatus": "Married",
    "homePhone": "(222) 499-2222",
    "mobilePhone": "(932) 499-9329",
    "county": "Maricopa",
    "addressFlag": "D - Data reporter's default address",
    "piid":"0220020009150023"
  },
  {
    "id": "6",
    "debtorName": "Smith Adam",
    "ssn": "123-45-4344",
    "addressLineOne": "3350 New York",
    "addressLineTwo": "Wyoming",
    "zipCode": "41805",
    "state": "NY",
    "dob": "12/29/1980",
    "maritalStatus": "Married",
    "homePhone": "(222) 499-2222",
    "mobilePhone": "(932) 499-9329",
    "county": "Maricopa",
    "addressFlag": "D - Data reporter's default address",
    "piid":"0220020009150011"
  },
  {
    "id": "7",
    "debtorName": "John John",
    "ssn": "123-45-4349",
    "addressLineOne": "3350 New York",
    "addressLineTwo": "Wyoming",
    "zipCode": "41806",
    "state": "NY",
    "dob": "12/29/1980",
    "maritalStatus": "Married",
    "homePhone": "(222) 499-2222",
    "mobilePhone": "(932) 499-9329",
    "county": "Maricopa",
    "addressFlag": "D - Data reporter's default address",
    "piid":"0220020009150089"
  },
  {
    "id": "8",
    "debtorName": "John Sam",
    "ssn": "123-45-4349",
    "addressLineOne": "4444 New York",
    "addressLineTwo": "333 Menley",
    "zipCode": "41802",
    "state": "MA",
    "dob": "12/29/1980",
    "maritalStatus": "Married",
    "homePhone": "(222) 499-2222",
    "mobilePhone": "(932) 499-9329",
    "county": "Maricopa",
    "addressFlag": "D - Data reporter's default address",
    "piid":"0220020009150067"
  },
  {
    "id": "9",
    "debtorName": "John Smith",
    "ssn": "123-45-4349",
    "addressLineOne": "3350 New York",
    "addressLineTwo": "Wyoming",
    "zipCode": "41808",
    "state": "NY",
    "dob": "12/29/1980",
    "maritalStatus": "Married",
    "homePhone": "(222) 499-2222",
    "mobilePhone": "(932) 499-9329",
    "county": "Maricopa",
    "addressFlag": "D - Data reporter's default address",
    "piid":"0220020009150044"
  },
  {
    "id": "10",
    "debtorName": "Johnny",
    "ssn": "123-45-4349",
    "addressLineOne": "3350 Alaska",
    "addressLineTwo": "Wyoming",
    "zipCode": "31029",
    "state": "AL",
    "dob": "12/29/1980",
    "maritalStatus": "Married",
    "homePhone": "(222) 499-2222",
    "mobilePhone": "(932) 499-9329",
    "county": "Maricopa",
    "addressFlag": "D - Data reporter's default address",
    "piid":"0220020009150033"
  },
  {
    "id": "11",
    "debtorName": "John Adela",
    "ssn": "123-45-4349",
    "addressLineOne": "2222 New York",
    "addressLineTwo": "Wyoming",
    "zipCode": "33339",
    "state": "NY",
    "dob": "12/29/1980",
    "maritalStatus": "Married",
    "homePhone": "(222) 499-2222",
    "mobilePhone": "(932) 499-9329",
    "county": "Maricopa",
    "addressFlag": "D - Data reporter's default address",
    "piid":"0220020009150088"
  }
]
