{
  "workDates": [
    {
      "id": "1",
      "calendarCode": "AFU",
      "reason": "Check assets",
      "groupId": "1",
      "noteId": "1",
      "nextWorkDate": "09/07/2022",
      "nextWorkTime": "09:30 AM"
    },
    {
      "id": "2",
      "calendarCode": "CAN",
      "reason": "Check assets",
      "noteId": "2",
      "nextWorkDate": "09/01/2022",
      "nextWorkTime": "02:15 AM",
      "createdDate": "2021-11-25T03:00:00.000Z"
    },
    {
      "id": "3",
      "calendarCode": "MBC",
      "reason": "Confirm with debtor",
      "noteId": "3",
      "nextWorkDate": "04/12/2022",
      "nextWorkTime": "08:45 AM"
    },
    {
      "id": "4",
      "calendarCode": "MBC",
      "reason": "Confirm with debtor",
      "noteId": "4",
      "nextWorkDate": "01/10/2022",
      "nextWorkTime": "08:20 AM"
    }
  ]
}
