<?xml version="1.0" encoding="UTF-8"?>
<svg width="68px" height="50px" viewBox="0 0 68 50" version="1.1" xmlns="http://www.w3.org/2000/svg" xmlns:xlink="http://www.w3.org/1999/xlink">
    <title>D4069DE6-DE9A-4A20-AD2F-4CFB4F55D94E</title>
    <defs>
        <path d="M7.33333333,7.16666667 L7.33333333,42.8333333 C7.33333333,43.1094757 7.55719096,43.3333333 7.83333333,43.3333333 L60.1666667,43.3333333 C60.442809,43.3333333 60.6666667,43.1094757 60.6666667,42.8333333 L60.6666667,7.16666667 C60.6666667,6.89052429 60.442809,6.66666667 60.1666667,6.66666667 L7.83333333,6.66666667 C7.55719096,6.66666667 7.33333333,6.89052429 7.33333333,7.16666667 Z M7.33333333,0 L60.6666667,0 C64.348565,0 67.3333333,2.98476833 67.3333333,6.66666667 L67.3333333,43.3333333 C67.3333333,47.0152317 64.348565,50 60.6666667,50 L7.33333333,50 C3.651435,50 0.666666667,47.0152317 0.666666667,43.3333333 L0.666666667,6.66666667 C0.666666667,2.98476833 3.651435,0 7.33333333,0 Z M50.6666667,21.6666667 C52.5,21.6666667 54,23.1666667 54,25 C54,26.8333333 52.5,28.3333333 50.6666667,28.3333333 L17.3333333,28.3333333 C15.5,28.3333333 14,26.8333333 14,25 C14,23.1666667 15.5,21.6666667 17.3333333,21.6666667 L50.6666667,21.6666667 Z M17.3333333,31.6666667 L20.6666667,31.6666667 C22.5,31.6666667 24,33.1666667 24,35 C24,36.8333333 22.5,38.3333333 20.6666667,38.3333333 L17.3333333,38.3333333 C15.5,38.3333333 14,36.8333333 14,35 C14,33.1666667 15.5,31.6666667 17.3333333,31.6666667 Z M30.6666667,31.6666667 L34,31.6666667 C35.8333333,31.6666667 37.3333333,33.1666667 37.3333333,35 C37.3333333,36.8333333 35.8333333,38.3333333 34,38.3333333 L30.6666667,38.3333333 C28.8333333,38.3333333 27.3333333,36.8333333 27.3333333,35 C27.3333333,33.1666667 28.8333333,31.6666667 30.6666667,31.6666667 Z" id="path-1"></path>
    </defs>
    <g id="[CXC-445]---7.8-View-the-list-of-bank" stroke="none" stroke-width="1" fill="none" fill-rule="evenodd">
        <g id="[CXC-445]---7.8.12.-View-the-list-of-bank" transform="translate(-429.000000, -307.000000)">
            <g id="Empty-Satte" transform="translate(353.000000, 292.000000)">
                <g id="Icon" transform="translate(76.000000, 15.000000)">
                    <mask id="mask-2" fill="white">
                        <use xlink:href="#path-1"></use>
                    </mask>
                    <use fill="#000000" fill-rule="nonzero" xlink:href="#path-1"></use>
                    <g id="Icon-Color" mask="url(#mask-2)" fill="#E3E3E8">
                        <g transform="translate(-6.000000, -15.000000)" id="color">
                            <rect x="0" y="0" width="80" height="80"></rect>
                        </g>
                    </g>
                </g>
            </g>
        </g>
    </g>
</svg>