[
    {
        "id": "1",
        "debtorName": "Smith jackie",
        "accountNumber": "022002••••••1490",
        "creditBureauAccNbr": "022002000915001",
        "accNumber": {
            "accountNumber": "022002••••••1490",
            "accountNumberUnMask": "0220022004341490"
        },
        "ssn": "123-45-5435",
        "originalLoanNumber": "022000••••••0000",
        "originalLoanAmount": "111",
        "originalLoanNbr": {
            "accountNumber": "022000••••••0000",
            "accountNumberUnMask": "02200033555773110000"
        },
        "status": "active",
        "agencyCode": "ATY001",
        "feeCode": "000",
        "lastRunDate": "11/01/2021",
        "lastActivityDate": "11/01/2021",
        "reasonCode": "DEF",
        "collectorCode": "ATY001",
        "statusCode": "B13",
        "credit": "97"
    },
    {
        "id": "2",
        "debtorName": "Smith Love",
        "accountNumber": "022002••••••1491",
        "creditBureauAccNbr": "022002000915001",
        "accNumber": {
            "accountNumber": "022002••••••1491",
            "accountNumberUnMask": "0220022004341491"
        },
        "ssn": "123-45-4435",
        "originalLoanNumber": "022000••••••0001",
        "originalLoanAmount": "111",
        "originalLoanNbr": {
            "accountNumber": "022000••••••0001",
            "accountNumberUnMask": "02200033555773110001"
        },
        "status": "active",
        "agencyCode": "999",
        "feeCode": "000",
        "lastRunDate": "11/01/2021",
        "lastActivityDate": "11/01/2021",
        "reasonCode": "DEF",
        "collectorCode": "ATY001",
        "statusCode": "B13",
        "credit": "97"
    },
    {
        "id": "3",
        "debtorName": "Smith Smith",
        "creditBureauAccNbr": "022002000915001",
        "accountNumber": "022002••••••1492",
        "accNumber": {
            "accountNumber": "022002••••••1492",
            "accountNumberUnMask": "0220022004341492"
        },
        "ssn": "123-45-2222",
        "originalLoanNumber": "022000••••••0002",
        "originalLoanAmount": "111",
        "originalLoanNbr": {
            "accountNumber": "022000••••••0002",
            "accountNumberUnMask": "02200033555773110002"
        },
        "status": "purged",
        "agencyCode": "ATY001",
        "feeCode": "000",
        "lastRunDate": "11/01/2021",
        "lastActivityDate": "11/01/2021",
        "reasonCode": "DEF",
        "collectorCode": "ATY001",
        "statusCode": "B13",
        "credit": "97"
    },
    {
        "id": "4",
        "debtorName": "Smith James",
        "creditBureauAccNbr": "022002000915001",
        "accountNumber": "022002••••••1493",
        "accNumber": {
            "accountNumber": "022002••••••1493",
            "accountNumberUnMask": "0220022004341493"
        },
        "ssn": "123-45-4444",
        "originalLoanNumber": "022000••••••0003",
        "originalLoanAmount": "111",
        "originalLoanNbr": {
            "accountNumber": "022000••••••0003",
            "accountNumberUnMask": "02200033555773110003"
        },
        "status": "purged",
        "agencyCode": "ATY001",
        "feeCode": "",
        "lastRunDate": "11/01/2021",
        "lastActivityDate": "11/01/2021",
        "reasonCode": "",
        "collectorCode": "ATY001",
        "statusCode": "B13",
        "credit": "97"
    }
]