{
  "views": [
    {
      "name": "accountGroup",
      "layout": {
        "name": "BootstrapGridLayout"
      },
      "fields": [
        {
          "name": "accNumber",
          "layoutProps": {
            "className": "col-4 col-md-4 col-lg-3 mt-16"
          }
        },
        {
          "name": "accountType",
          "layoutProps": {
            "className": "col-4 col-md-4 col-lg-3 mt-16"
          },
          "options": {
            "format": "showInformation",
            "popover": {
              "valueKey": "value",
              "descriptionKey": "description",
              "options": {
                "placement": "right"
              }
            }
          }
        },
        {
          "name": "accountClass",
          "layoutProps": {
            "className": "col-4 col-md-4 col-lg-3 mt-16"
          },
          "options": {
            "format": "showInformation",
            "popover": {
              "valueKey": "value",
              "descriptionKey": "description",
              "options": {
                "placement": "right"
              }
            }
          }
        },
        {
          "name": "accountGroup_responsibilityCenterNumber",
          "layoutProps": {
            "className": "col-4 col-md-4 col-lg-3 mt-16"
          },
          "options": {
            "format": "showInformation",
            "popover": {
              "valueKey": "value",
              "descriptionKey": "description",
              "options": {
                "placement": "right"
              }
            }
          }
        },
        {
          "name": "reasonCode",
          "layoutProps": {
            "className": "col-8 col-md-8 col-lg-3 mt-16"
          }
        },
        {
          "name": "accountGroup_chargedOffReasonCode",
          "layoutProps": {
            "className": "col-4 col-md-4 col-lg-3 mt-16"
          },
          "options": {
            "format": "showInformation",
            "popover": {
              "valueKey": "value",
              "descriptionKey": "description",
              "options": {
                "placement": "right"
              }
            }
          }
        },
        {
          "name": "accountGroup_chargedOffDate",
          "layoutProps": {
            "className": "col-4 col-md-4 col-lg-3 mt-16"
          }
        },
        {
          "name": "accountGroup_chargedOffAmount",
          "layoutProps": {
            "className": "col-4 col-md-4 col-lg-3 mt-16"
          },
          "options": {
            "format": "amount"
          }
        },
        {
          "name": "accountGroup_outstandingBalanceAmount",
          "layoutProps": {
            "className": "col-4 col-md-4 col-lg-3 mt-16"
          },
          "options": {
            "format": "amount"
          }
        },
        {
          "name": "accountGroup_lastPaymentDate",
          "layoutProps": {
            "className": "col-4 col-md-4 col-lg-3 mt-16"
          }
        },
        {
          "name": "accountGroup_specialCondition",
          "layoutProps": {
            "className": "col-4 col-md-4 col-lg-3 mt-16"
          },
          "options": {
            "format": "showInformation",
            "popover": {
              "valueKey": "value",
              "descriptionKey": "description",
              "options": {
                "placement": "right",
                "size": "lg"
              }
            }
          }
        }
      ]
    }
  ]
}