{
  "views": [
    {
      "name": "associatedAccountInfo",
      "layout": {
        "name": "BootstrapGridLayout"
      },
      "fields": [
        {
          "name": "associatedAccountNumber",
          "layoutProps": {
            "className": "col-xl-2 col-md-4"
          }
        },
        {
          "name": "associatedDebtorName",
          "layoutProps": {
            "className": "col-xl-2 col-md-4"
          }
        },
        {
          "name": "associatedLegalRelationship",
          "layoutProps": {
            "className": "col-xl-2 col-md-4"
          }
        },
        {
          "name": "associatedCoMaker",
          "layoutProps": {
            "className": "col-xl-2 col-md-4 mt-xl-0 mt-md-16"
          }
        },
        {
          "name": "associatedAuthorizedUsers",
          "layoutProps": {
            "className": "col-xl-4 col-md-8 mt-xl-0 mt-md-16"
          }
        }
      ]
    }
  ]
}
