{
  "views": [
    {
      "name": "debtorDetailEmployerInformation",
      "layout": {
        "name": "BootstrapGridLayout"
      },
      "fields": [
        {
          "name": "employerTitle",
          "layoutProps": {
            "className": "col-12 mb-16"
          }
        },
        {
          "name": "employerName",
          "layoutProps": {
            "className": "col-lg-2 col-md-3"
          }
        },
        {
          "name": "employerWorkPhone",
          "layoutProps": {
            "className": "col-lg-2 col-md-3"
          }
        },
        {
          "name": "employerMiscellaneousHomeEmail",
          "layoutProps": {
            "className": "col-lg-3 col-md-6"
          }
        },
        {
          "name": "employerAddress",
          "layoutProps": {
            "className": "col-lg-5 col-md-6 mt-md-16 mt-lg-0"
          }
        },
        {
          "name": "employerShortField1",
          "layoutProps": {
            "className": "col-lg-2 col-md-3 order-lg-1 order-md-2 mt-16"
          }
        },
        {
          "name": "employerDateField1",
          "layoutProps": {
            "className": "col-lg-2 col-md-3 order-lg-1 order-md-2 mt-16"
          }
        },
        {
          "name": "employerLongField1",
          "layoutProps": {
            "className": "col-lg-8 col-md-6 order-lg-1 order-md-2 mt-16"
          }
        },
        {
          "name": "employerShortField2",
          "layoutProps": {
            "className": "col-lg-2 col-md-3 order-lg-1 order-md-2 mt-16"
          }
        },
        {
          "name": "employerDateField2",
          "layoutProps": {
            "className": "col-lg-2 col-md-3 order-lg-1 order-md-2 mt-16"
          }
        },
        {
          "name": "employerLongField2",
          "layoutProps": {
            "className": "col-lg-8 col-md-6 order-lg-1 order-md-2 mt-16"
          }
        },
        {
          "name": "employerComment",
          "layoutProps": {
            "className": "col-12 order-lg-1 order-md-1 col-md-6 mt-16"
          }
        }
      ]
    }
  ]
}
