{
  "views": [
    {
      "name": "debtorDetailAccountInformation",
      "layout": {
        "name": "BootstrapGridLayout"
      },
      "fields": [
        {
          "name": "debtorDetailName",
          "layoutProps": {
            "className": "col-12 mb-16"
          }
        },
        {
          "name": "debtorDetailLast4SSN",
          "layoutProps": {
            "className": "col-lg-2 col-md-3"
          }
        },
        {
          "name": "debtorDetailSalutation",
          "layoutProps": {
            "className": "col-lg-2 col-md-3"
          }
        },
        {
          "name": "debtorDetailDateOfBirth",
          "layoutProps": {
            "className": "col-lg-3 col-md-3"
          }
        },
        {
          "name": "debtorDetailMaritalStatus",
          "layoutProps": {
            "className": "col-lg-5 col-md-3"
          }
        },
        {
          "name": "debtorDetailHomePhone",
          "layoutProps": {
            "className": "col-lg-2 col-md-3 mt-16"
          }
        },
        {
          "name": "debtorDetailMobilePhone",
          "layoutProps": {
            "className": "col-lg-2 col-md-3 mt-16"
          }
        },
        {
          "name": "debtorDetailAddress",
          "layoutProps": {
            "className": "col-lg-3 col-md-6 mt-16"
          }
        },
        {
          "name": "debtorDetailCounty",
          "layoutProps": {
            "className": "col-lg-2 col-md-3 mt-16"
          }
        },
        {
          "name": "debtorDetailAddressFlag",
          "layoutProps": {
            "className": "col-lg-3 col-md-9 mt-16"
          }
        }
      ]
    }
  ]
}
