{
  "views": [
    {
      "name": "demographicsChildrenInfo",
      "layout": {
        "name": "BootstrapGridLayout"
      },
      "fields": [
        {
          "name": "supportPersonName",
          "layoutProps": {
            "className": "col-12 col-lg-3 mt-16"
          }
        },
        {
          "name": "supportAmount",
          "layoutProps": {
            "className": "col-4 col-lg-3 mt-16"
          }
        },
        {
          "name": "supportCountry",
          "layoutProps": {
            "className": "col-5 col-lg-3 mt-16"
          }
        },
        {
          "name": "supportType",
          "layoutProps": {
            "className": "col-4 col-lg-6 mt-16"
          }
        },
        {
          "name": "supportMethod",
          "layoutProps": {
            "className": "col-4 col-lg-6 mt-16"
          }
        }
      ]
    }
  ]
}
