{
  "views": [
    {
      "name": "feeInformation",
      "layout": {
        "name": "BootstrapGridLayout"
      },
      "fields": [
        {
          "name": "feeBasic",
          "layoutProps": {
            "className": "col-12 py-8"
          }
        },
        {
          "name": "assignTo",
          "layoutProps": {
            "className": "col-12 py-8"
          }
        },
        {
          "name": "remitNetFees",
          "layoutProps": {
            "className": "col-12 py-8"
          }
        },
        {
          "name": "remitNetCosts",
          "layoutProps": {
            "className": "col-12 py-8"
          }
        },
        {
          "name": "updCollector",
          "layoutProps": {
            "className": "col-12 py-8"
          }
        }
      ]
    }
  ]
}
