{
  "views": [
    {
      "name": "fsBankInfo",
      "layout": {
        "name": "BootstrapGridLayout",
        "layoutOptions": {}
      },
      "fields": [
        {
          "name": "bankInstitution1",
          "layoutProps": {
            "className": "col-4 col-lg-3 mt-16"
          }
        },
        {
          "name": "bankInstitution2",
          "layoutProps": {
            "className": "col-4 col-lg-3 mt-16"
          }
        },
        {
          "name": "bankInstitution3",
          "layoutProps": {
            "className": "col-4 col-lg-3 mt-16"
          }
        }
      ]
    }
  ]
}
