{
  "views": [
    {
      "name": "fsHomeInfo",
      "layout": {
        "name": "BootstrapGridLayout",
        "layoutOptions": {}
      },
      "fields": [
        {
          "name": "paymentAmount",
          "layoutProps": {
            "className": "col-4 col-lg-3 mt-16"
          }
        },
        {
          "name": "montageOrRentDueDate",
          "layoutProps": {
            "className": "col-4 col-lg-3 mt-16"
          }
        },
        {
          "name": "paidTo",
          "layoutProps": {
            "className": "col-4 col-lg-3 mt-16"
          }
        },
        {
          "name": "ownerOrRenterType",
          "layoutProps": {
            "className": "col-4 col-lg-3 mt-16"
          }
        }
      ]
    }
  ]
}
