{
  "views": [
    {
      "name": "generalInfo",
      "layout": {
        "name": "BootstrapGridLayout",
        "layoutOptions": {
          "className": "general-info"
        }
      },
      "fields": [
        {
          "name": "reasonCodeGeneralInfo",
          "layoutProps": {
            "className": "col-xl-6 col-lg-8 col-md-12 mt-16"
          }
        },
        {
          "name": "miscellaneousCodeOneGeneralInfo",
          "layoutProps": {
            "className": "col-xl-3 col-lg-4 col-md-6 mt-16"
          }
        },
        {
          "name": "miscellaneousCodeTwoGeneralInfo",
          "layoutProps": {
            "className": "col-xl-3 col-lg-4 col-md-6 mt-16"
          }
        },
        {
          "name": "collectorCodeGeneralInfo",
          "layoutProps": {
            "className": "col-xl-3 col-lg-4 col-md-6 mt-16"
          }
        },
        {
          "name": "typeCodeGeneralInfo",
          "layoutProps": {
            "className": "col-xl-3 col-lg-4 col-md-6 mt-16"
          }
        },
        {
          "name": "portfolioTypeGeneralInfo",
          "layoutProps": {
            "className": "col-xl-3 col-lg-4 col-md-6 mt-16"
          }
        },
        {
          "name": "officerGeneralInfo",
          "layoutProps": {
            "className": "col-xl-3 col-lg-4 col-md-6 mt-16"
          }
        },
        {
          "name": "inLitigationGeneralInfo",
          "layoutProps": {
            "className": "col-xl-3 col-lg-4 col-md-6 mt-16"
          }
        },
        {
          "name": "bankruptcyGeneralInfo",
          "layoutProps": {
            "className": "col-xl-3 col-lg-4 col-md-6 mt-16"
          }
        },
        {
          "name": "deceasedGeneralInfo",
          "layoutProps": {
            "className": "col-xl-3 col-lg-4 col-md-6 mt-16"
          }
        },
        {
          "name": "fraudGeneralInfo",
          "layoutProps": {
            "className": "col-xl-3 col-lg-4 col-md-6 mt-16"
          }
        },
        {
          "name": "statusCodeGeneralInfo",
          "layoutProps": {
            "className": "col-xl-3 col-lg-4 col-md-6 mt-16"
          }
        },
        {
          "name": "statusTypeGeneralInfo",
          "layoutProps": {
            "className": "col-xl-3 col-lg-4 col-md-6 mt-16"
          }
        },
        {
          "name": "statusDateGeneralInfo",
          "layoutProps": {
            "className": "col-xl-6 col-day col-lg-4 col-md-6 mt-16"
          }
        },
        {
          "name": "openedDateGeneralInfo",
          "layoutProps": {
            "className": "col-xl-3 col-lg-4 col-md-6 mt-16"
          }
        },
        {
          "name": "delinquencyStartDateGeneralInfo",
          "layoutProps": {
            "className": "col-xl-3 col-lg-4 col-md-6 mt-16"
          }
        },
        {
          "name": "loadDateGeneralInfo",
          "layoutProps": {
            "className": "col-xl-6 col-lg-4 col-md-6 mt-16"
          }
        },
        {
          "name": "preChangedOffMountGeneralInfo",
          "layoutProps": {
            "className": "col-xl-3 col-lg-4 col-md-6 mt-16"
          }
        },
        {
          "name": "chargedOffAmountGeneralInfo",
          "layoutProps": {
            "className": "col-xl-3 col-lg-4 col-md-6 mt-16"
          },
          "options": {
            "format": "amount"
          }
        },
        {
          "name": "chargedOffDateGeneralInfo",
          "layoutProps": {
            "className": "col-xl-6 col-lg-4 col-md-6 mt-16"
          }
        },
        {
          "name": "shortFieldOneGeneralInfo",
          "layoutProps": {
            "className": "col-xl-3 col-lg-4 col-md-6 mt-16"
          }
        },
        {
          "name": "dateFieldOneGeneralInfo",
          "layoutProps": {
            "className": "col-xl-3 col-lg-4 col-md-6 mt-16"
          }
        },
        {
          "name": "longFieldOneGeneralInfo",
          "layoutProps": {
            "className": "col-xl-3 col-lg-4 col-md-6 mt-16"
          }
        },
        {
          "name": "amountOneGeneralInfo",
          "layoutProps": {
            "className": "col-xl-3 col-lg-4 col-md-6 mt-16"
          }
        },
        {
          "name": "shortFieldTwoGeneralInfo",
          "layoutProps": {
            "className": "col-xl-3 col-lg-4 col-md-6 mt-16"
          }
        },
        {
          "name": "dateFieldTwoGeneralInfo",
          "layoutProps": {
            "className": "col-xl-3 col-lg-4 col-md-6 mt-16"
          }
        },
        {
          "name": "longFieldTwoGeneralInfo",
          "layoutProps": {
            "className": "col-xl-3 col-lg-4 col-md-6 mt-16"
          }
        },
        {
          "name": "amountTwoGeneralInfo",
          "layoutProps": {
            "className": "col-xl-3 col-lg-4 col-md-6 mt-16"
          }
        },
        {
          "name": "commentGeneralInfo",
          "layoutProps": {
            "className": "col-xl-9 col-lg-8 col-md-12 mt-16"
          },
          "options": {
            "format": "lessMoreActions"
          }
        }
      ]
    }
  ]
}
