{
  "views": [
    {
      "name": "monitorCriteria",
      "layout": {
        "name": "BootstrapGridLayout",
        "layoutOptions": {
          "className": "gutters-8"
        }
      },
      "fields": [
        {
          "name": "monitorCalendarCode",
          "type": "DropDownControl",
          "layoutProps": {
            "className": "col-12"
          }
        },
        {
          "name": "monitorNoteCodes",
          "type": "MultiSelectControl",
          "layoutProps": {
            "className": "mt-16 col-12"
          }
        },
        {
          "name": "monitorNoteCodesDescription",
          "type": "HeadingControl",
          "as": "p",
          "label": "txt_note_codes_maximum_description",
          "layoutProps": {
            "className": "mt-8 col-12 fs-12 color-grey-l24"
          }
        },
        {
          "name": "monitorIntervalStartLabel",
          "type": "HeadingControl",
          "as": "b",
          "label": "txt_interval_start",
          "layoutProps": {
            "className": "mt-16 col-12 color-grey"
          }
        },
        {
          "name": "monitorIntervalStart",
          "type": "NumericControl",
          "label": "txt_enter_counts",
          "layoutProps": {
            "className": "mt-8 col-7"
          }
        },
        {
          "name": "monitorIntervalStartUnit",
          "type": "DropDownControl",
          "layoutProps": {
            "className": "mt-8 col-5 no-label"
          }
        },
        {
          "name": "monitorIntervalActionLabel",
          "type": "HeadingControl",
          "as": "b",
          "label": "txt_interval_action",
          "layoutProps": {
            "className": "mt-16 col-12 color-grey"
          }
        },
        {
          "name": "monitorIntervalAction",
          "type": "NumericControl",
          "label": "txt_enter_counts",
          "layoutProps": {
            "className": "mt-8 col-7"
          }
        },
        {
          "name": "monitorIntervalActionUnit",
          "type": "DropDownControl",
          "layoutProps": {
            "className": "mt-8 col-5 no-label"
          }
        },
        {
          "name": "monitorCalendarPostCodeLabel",
          "type": "HeadingControl",
          "as": "b",
          "label": "txt_monitor_calendar_code_post",
          "layoutProps": {
            "className": "mt-16 col-12 color-grey"
          },
          "hasLabelStar": true
        },
        {
          "name": "monitorCalendarPostCodeDescription",
          "type": "HeadingControl",
          "as": "p",
          "label": "txt_calendar_code_post_description",
          "layoutProps": {
            "className": "mt-4 col-12 color-grey"
          }
        },
        {
          "name": "monitorCalendarPostCode",
          "type": "GroupRadioControl",
          "radios": [
            {
              "description": "Yes",
              "value": "Yes"
            },
            {
              "description": "No",
              "value": "No"
            }
          ],
          "layoutProps": {
            "className": "mt-n8 col-12"
          }
        },
        {
          "name": "monitorPaymentDeleteCalendarCodeLabel",
          "type": "HeadingControl",
          "as": "b",
          "label": "txt_payment_delete_calendar_code",
          "layoutProps": {
            "className": "mt-16 col-12 color-grey"
          },
          "hasLabelStar": true
        },
        {
          "name": "monitorPaymentDeleteCalendarCodeDescription",
          "type": "HeadingControl",
          "as": "p",
          "label": "txt_payment_delete_calendar_code_description",
          "layoutProps": {
            "className": "mt-4 col-12 color-grey"
          }
        },
        {
          "name": "monitorPaymentDeleteCalendarCode",
          "type": "GroupRadioControl",
          "radios": [
            {
              "description": "Yes",
              "value": "Yes"
            },
            {
              "description": "No",
              "value": "No"
            }
          ],
          "layoutProps": {
            "className": "mt-n8 col-12"
          }
        }
      ]
    }
  ]
}
