{
  "views": [
    {
      "name": "pendingCorrespondence",
      "layout": {
        "name": "BootstrapGridLayout",
        "layoutOptions": {
          "className": "row-correspondence"
        }
      },
      "fields": [
        {
          "name": "pendingCorrespondence_type",
          "layoutProps": {
            "className": "col-5"
          },
          "options": {
            "direction": "horizontal",
            "autoWidth": true
          }
        },
        {
          "name": "pendingCorrespondence_accountNumber",
          "layoutProps": {
            "className": "col-7"
          },
          "options": {
            "direction": "horizontal",
            "autoWidth": true,
            "labelGrey": true
          }
        },
        {
          "name": "pendingCorrespondence_sendDate",
          "layoutProps": {
            "className": "col-5 mt-4"
          },
          "options": {
            "direction": "horizontal",
            "autoWidth": true
          }
        },
        {
          "name": "pendingCorrespondence_receiver",
          "layoutProps": {
            "className": "col-7 text-nowrap mt-4"
          },
          "options": {
            "direction": "horizontal",
            "autoWidth": true,
            "format": "showInformation",
            "popover": {
              "valueKey": "value",
              "descriptionKey": "description",
              "options": {
                "placement": "right-start"
              }
            }
          }
        }
      ]
    }
  ]
}
