{
  "views": [
    {
      "name": "queueDetail",
      "layout": {
        "name": "BootstrapGridLayout"
      },
      "fields": [
        {
          "name": "accountGroup_debtorName",
          "layoutProps": {
            "className": "col-12 fw-500 text-capitalize"
          }
        },
        {
          "name": "accNumber",
          "layoutProps": {
            "className": "col-6 col-lg-3 col-xl-2 mt-16"
          }
        },
        {
          "name": "agencyCodeAgencyInfo",
          "layoutProps": {
            "className": "col-6 col-lg-9 col-xl-3 mt-16"
          }
        },
        {
          "name": "collectorCodeGeneralInfo",
          "layoutProps": {
            "className": "col-3 col-lg-3 col-xl-2 mt-16"
          }
        },
        {
          "name": "calendarCodeAccounts",
          "layoutProps": {
            "className": "col-3 col-lg-3 col-xl-2 mt-16"
          }
        },
        {
          "name": "currentBalanceAccounts",
          "layoutProps": {
            "className": "col-3 col-lg-3 col-xl-3 mt-16"
          }
        },
        {
          "name": "statusAccounts",
          "layoutProps": {
            "className": "col-3 col-lg-3 col-xl-2 mt-16 item-account-status"
          }
        },
        {
          "name": "reasonCode",
          "layoutProps": {
            "className": "col-3 col-lg-3 col-lg-3 col-xl-3 mt-16"
          }
        },
        {
          "name": "accountClass",
          "layoutProps": {
            "className": "col-3 col-lg-3 col-lg-3 col-xl-2 mt-16"
          },
          "options": {
            "format": "showInformation",
            "popover": {
              "valueKey": "value",
              "descriptionKey": "description",
              "options": {
                "placement": "right"
              }
            }
          }
        },
        {
          "name": "accountType",
          "layoutProps": {
            "className": "col-3 col-lg-3 col-xl-2 mt-16"
          },
          "options": {
            "format": "showInformation",
            "popover": {
              "valueKey": "value",
              "descriptionKey": "description",
              "options": {
                "placement": "right"
              }
            }
          }
        },
        {
          "name": "accountGroup_specialCondition",
          "layoutProps": {
            "className": "col-3 col-lg-3 col-xl-3 mt-16"
          },
          "options": {
            "format": "showInformation",
            "popover": {
              "valueKey": "value",
              "descriptionKey": "description",
              "options": {
                "placement": "right",
                "size": "lg"
              }
            }
          }
        }
      ]
    }
  ]
}