{
  "views": [
    {
      "name": "queueList",
      "layout": {
        "name": "BootstrapGridLayout"
      },
      "fields": [
        {
          "name": "queueList_lastWorkDate",
          "layoutProps": {
            "className": "w-xl-15 w-md-35 mt-8"
          }
        },
        {
          "name": "queueList_totalNumberOfAccounts",
          "layoutProps": {
            "className": "w-xl-15 w-md-30 mt-8"
          }
        },
        {
          "name": "queueList_totalOutstandingBalanceAmount",
          "layoutProps": {
            "className": "w-xl-25 w-md-35 mt-8"
          },
          "options": {
            "format": "amount"
          }
        },
        {
          "name": "queueList_daysBefore",
          "layoutProps": {
            "className": "w-xl-15 w-md-35 mt-xl-8 mt-md-16"
          },
          "options": {
            "labelInfo": "txt_description_day_before",
            "popover": {
              "options": {
                "size": "md",
                "placement": "top-start"
              }
            }
          }
        },
        {
          "name": "queueList_daysAfter",
          "layoutProps": {
            "className": "w-xl-15 w-md-30 mt-xl-8 mt-md-16"
          },
          "options": {
            "labelInfo": "txt_description_day_after",
            "popover": {
              "options": {
                "size": "md",
                "placement": "top-start"
              }
            }
          }
        },
        {
          "name": "queueList_assignedTo",
          "layoutProps": {
            "className": "w-xl-15 w-md-35 mt-xl-8 mt-md-16"
          }
        }
      ]
    }
  ]
}
