{
  "views": [
    {
      "name": "returnCriteria",
      "layout": {
        "name": "BootstrapGridLayout"
      },
      "fields": [
        {
          "name": "calendarCode",
          "type": "ComboBoxControl",
          "layoutProps": {
            "className": "col-12"
          }
        },
        {
          "name": "noteCodes",
          "type": "ComboBoxControl",
          "layoutProps": {
            "className": "mt-16 col-12"
          }
        },
        {
          "name": "calendarIntervalHeading",
          "type": "HeadingControl",
          "label": "txt_calendar_interval",
          "as": "b",
          "layoutProps": {
            "className": "mt-16 col-12 color-grey"
          },
          "hasLabelStar": true
        },
        {
          "name": "calendarInterval",
          "type": "NumericControl",
          "label": "txt_enter_counts",
          "layoutProps": {
            "className": "mt-8 col-8"
          }
        },
        {
          "name": "calendarIntervalUnit",
          "type": "DropDownControl",
          "layoutProps": {
            "className": "mt-8 col-4"
          }
        },
        {
          "name": "paymentDeleteCalendarCodeLabel",
          "type": "HeadingControl",
          "as": "b",
          "label": "txt_payment_delete_calendar_code",
          "layoutProps": {
            "className": "mt-16 col-12 color-grey"
          },
          "hasLabelStar": true
        },
        {
          "name": "paymentDeleteCalendarCodeDescription",
          "type": "HeadingControl",
          "as": "p",
          "label": "txt_delete_calendar_code_payment_post",
          "layoutProps": {
            "className": "mt-4 col-12 color-grey"
          }
        },
        {
          "name": "paymentDeleteCalendarCode",
          "type": "GroupRadioControl",
          "radios": [
            {
              "description": "Yes",
              "value": "Y"
            },
            {
              "description": "No",
              "value": "N"
            }
          ],
          "layoutProps": {
            "className": "mt-n8 col-12"
          }
        },
        {
          "name": "NFSDeleteCalendarCodeLabel",
          "type": "HeadingControl",
          "as": "b",
          "label": "txt_nfs_delete_calendar_code",
          "layoutProps": {
            "className": "mt-16 col-12 color-grey"
          },
          "hasLabelStar": true
        },
        {
          "name": "NFSDeleteCalendarPostCodeDescription",
          "type": "HeadingControl",
          "as": "p",
          "label": "txt_delete_calendar_code_payment_check",
          "layoutProps": {
            "className": "mt-4 col-12 color-grey"
          }
        },
        {
          "name": "nFSDeleteCalendarcheck",
          "type": "GroupRadioControl",
          "radios": [
            {
              "description": "Yes",
              "value": "Y"
            },
            {
              "description": "No",
              "value": "N"
            }
          ],
          "layoutProps": {
            "className": "mt-n8 col-12"
          }
        }
      ]
    }
  ]
}
