[
  {
    "id": "1",
    "saveNumber": "0012",
    "description": "New Recovery1 Accounts",
    "lastRunDate": "10/25/2021",
    "nextRunDate": "10/27/2021",
    "frequency": "7",
    "reportOnly": "Yes - Produce RD-613, New Assigns report",
    "type": "A - Assignments"
  },
  {
    "id": "2",
    "saveNumber": "0014",
    "description": "Description 1",
    "lastRunDate": "10/27/2021",
    "nextRunDate": "10/30/2021",
    "frequency": "14",
    "reportOnly": "Yes - Produce RD-613, New Assigns report",
    "type": "A - Assignments"
  },
  {
    "id": "3",
    "saveNumber": "0768",
    "description": "Description 2",
    "lastRunDate": "11/01/2021",
    "nextRunDate": "11/05/2021",
    "frequency": "30",
    "reportOnly": "Yes - Produce RD-613, New Assigns report",
    "type": "A - Assignments"
  },
  {
    "id": "31",
    "saveNumber": "0013",
    "description": "New Recovery1 Accounts",
    "lastRunDate": "10/25/2021",
    "nextRunDate": "10/27/2021",
    "frequency": "0",
    "reportOnly": "Yes - Produce RD-614, Recalls report",
    "type": "A - Assignments"
  },
  {
    "id": "4",
    "saveNumber": "0015",
    "description": "Description 1",
    "lastRunDate": "",
    "nextRunDate": "10/30/2021",
    "frequency": "0",
    "reportOnly": "Yes - Produce RD-614, Recalls report",
    "type": "A - Assignments"
  },
  {
    "id": "5",
    "saveNumber": "0016",
    "description": "New Recovery1 Accounts",
    "lastRunDate": "10/25/2021",
    "nextRunDate": "10/27/2021",
    "frequency": "0",
    "reportOnly": "Yes - Produce RD-614, Recalls report",
    "type": "A - Assignments"
  },
  {
    "id": "6",
    "saveNumber": "0017",
    "description": "Description 1",
    "lastRunDate": "",
    "nextRunDate": "10/30/2021",
    "frequency": "0",
    "reportOnly": "Yes - Produce RD-614, Recalls report",
    "type": "A - Assignments"
  },
  {
    "id": "7",
    "saveNumber": "0018",
    "description": "New Recovery1 Accounts",
    "lastRunDate": "10/25/2021",
    "nextRunDate": "10/27/2021",
    "frequency": "0",
    "reportOnly": "Yes - Produce RD-614, Recalls report",
    "type": "A - Assignments"
  },
  {
    "id": "8",
    "saveNumber": "0019",
    "description": "Description 1",
    "lastRunDate": "",
    "nextRunDate": "10/30/2021",
    "frequency": "0",
    "reportOnly": "Yes - Produce RD-614, Recalls report",
    "type": "A - Assignments"
  },
  {
    "id": "9",
    "saveNumber": "0020",
    "description": "New Recovery1 Accounts",
    "lastRunDate": "10/25/2021",
    "nextRunDate": "10/27/2021",
    "frequency": "0",
    "reportOnly": "Yes - Produce RD-614, Recalls report",
    "type": "A - Assignments"
  },
  {
    "id": "10",
    "saveNumber": "0021",
    "description": "Description 1",
    "lastRunDate": "",
    "nextRunDate": "10/30/2021",
    "frequency": "0",
    "reportOnly": "Yes - Produce RD-614, Recalls report",
    "type": "A - Assignments"
  },
  {
    "id": "11",
    "saveNumber": "0022",
    "description": "New Recovery1 Accounts",
    "lastRunDate": "10/25/2021",
    "nextRunDate": "10/27/2021",
    "frequency": "0",
    "reportOnly": "Yes - Produce RD-614, Recalls report",
    "type": "A - Assignments"
  },
  {
    "id": "12",
    "saveNumber": "0023",
    "description": "Description 1",
    "lastRunDate": "",
    "nextRunDate": "10/30/2021",
    "frequency": "0",
    "reportOnly": "Yes - Produce RD-614, Recalls report",
    "type": "A - Assignments"
  },
  {
    "id": "13",
    "saveNumber": "0024",
    "description": "New Recovery1 Accounts",
    "lastRunDate": "10/25/2021",
    "nextRunDate": "10/27/2021",
    "frequency": "0",
    "reportOnly": "Yes - Produce RD-614, Recalls report",
    "type": "A - Assignments"
  },
  {
    "id": "14",
    "saveNumber": "0025",
    "description": "Description 1",
    "lastRunDate": "",
    "nextRunDate": "10/30/2021",
    "frequency": "0",
    "reportOnly": "Yes - Produce RD-614, Recalls report",
    "type": "A - Assignments"
  },
  {
    "id": "15",
    "saveNumber": "0026",
    "description": "New Recovery1 Accounts",
    "lastRunDate": "10/25/2021",
    "nextRunDate": "10/27/2021",
    "frequency": "0",
    "reportOnly": "Yes - Produce RD-614, Recalls report",
    "type": "A - Assignments"
  },
  {
    "id": "16",
    "saveNumber": "0027",
    "description": "Description 1",
    "lastRunDate": "",
    "nextRunDate": "10/30/2021",
    "frequency": "0",
    "reportOnly": "Yes - Produce RD-614, Recalls report",
    "type": "A - Assignments"
  },

  {
    "id": "17",
    "saveNumber": "0028",
    "description": "Description 1",
    "lastRunDate": "",
    "nextRunDate": "10/30/2021",
    "frequency": "0",
    "reportOnly": "Yes - Produce RD-614, Recalls report",
    "type": "A - Assignments"
  },
  {
    "id": "18",
    "saveNumber": "0029",
    "description": "Description 1",
    "lastRunDate": "",
    "nextRunDate": "10/30/2021",
    "frequency": "0",
    "reportOnly": "Yes - Produce RD-614, Recalls report",
    "type": "A - Assignments"
  }
]
