{
  "api": {
    "agencyManagement": {
      "getSections": "refData/agencyManagementSections.json"
    },
    "agencyMaintenance": {
      "getAgencies": "mockData/agencyMaintenance.json",
      "addAgency": "mockApi/addAgency",
      "deleteAgency": "",
      "agencyDetails": "mockApi/getAgencyDetails"
    },
    "assignRequest": {
      "getSaveNumbers": "refData/saveNumber.json"
    },
    "monitor": {
      "getMonitors": "mockApi/getMonitors"
    },
    "return": {
      "getReturns": "mockApi/getReturns"
    }
  },
  "mappingUrl": "mapping/all.json"
}
