{
    "creditorName": "Jackie Love",
    "loanPurpose": "",
    "monthlyPaymentAmount": "3000",
    "debtBalance": "",
    "pastDueAmount": "",
    "finalJudgment": "N - No, this creditor does not hold a final judgment on the debtor"
}