{
  "demographics": {
    "debtorInformation": {
      "primaryDebtorName": "Smith Jackie",
      "primaryDebtorHomePhone": "(123) 456-7890",
      "primaryDebtorAddress": "2501 Main St San Francisco, CA 97208",
      "employerNameDebtor": "ST.001",
      "employerPhoneDebtor": "(123) 456-7771",
      "employerAddressDebtor": "4785 Tennessee Avenue New York",
      "contractTypeDebtor": "F",
      "startDateDebtor": "01/16/2019",
      "lastPayDateDebtor": "12/03/2021",
      "salaryTypeDebtor": "N",
      "nextPayDateDebtor": "01/16/2022",
      "netMonthlySalaryDebtor": "3000",
      "grossMonthlySalaryDebtor": "3000",
      "deductionDebtor": "300",
      "comment": "The quick brown fox jumps over the lazy dog",

      "addressLine1": "2501 Main St",
      "addressLine2": "",
      "state": "CA",
      "city": "San Francisco",
      "zipCode": "97208",
      "addressEmploymentDebtor": "4785 Tennessee Avenue",
      "stateEmploymentDebtor": "",
      "cityEmploymentDebtor": "New York",
      "zipCodeEmploymentDebtor": "99909"
    },
    "spouseInformation": {
      "spouseName": "Alison Willems",
      "homePhoneSpouse": "(123) 000-9990",
      "spouseAddress": "2416 Angus Road New York",
      "employerNameSpouse": "John Wick",
      "employerPhoneSpouse": "(123) 456-7771",
      "employerAddressSpouse": "2722 Jarvisville Road New York",
      "contractTypeSpouse": "P",
      "startDateSpouse": "01/16/2022",
      "lastPayDateSpouse": "02/20/2021",
      "nextPayDateSpouse": "01/16/2022",
      "salaryTypeSpouse": "G",
      "netMonthlySalarySpouse": "3000",
      "grossMonthlySalarySpouse": "3000",
      "deductionSpouse": "300",
      "spouseAddressLine1": "2416 Angus Road",
      "spouseAddressLine2": "",
      "stateSpouse": "",
      "citySpouse": "New York",
      "zipCodeSpouse": "",
      "addressEmploymentSpouse": "2722 Jarvisville Road",
      "stateEmploymentSpouse": "",
      "cityEmploymentSpouse": "New York",
      "zipCodeEmploymentSpouse": "345223"
    },
    "childrenInformation": {
      "numberOfChildren": "10",
      "child1Age": "1 month old",
      "child2Age": "5 years old",
      "child3Age": "1 month old",
      "child4Age": "5 years old",
      "child5Age": "1 month old",
      "child6Age": "5 years old",
      "child7Age": "1 month old",
      "child8Age": "5 years old",
      "child9Age": "1 month old",
      "child10Age": "5 years old",
      "supportPersonName": "Smith Jackie",
      "supportAmount": "600",
      "supportCountry": "USA",
      "supportType": "R",
      "supportMethod": "C"
    }
  }
}
