{
  "addressFlag": [
    { "value": "", "description": "None", "show": true },
    {
      "value": "B",
      "description": "Business address not consumer’s address",
      "show": true
    },
    {
      "value": "D",
      "description": "Data reporter’s default address",
      "show": true
    },
    { "value": "N", "description": "Not confirmed address", "show": true },
    {
      "value": "U",
      "description": "Undeliverable address/returned mail",
      "show": true
    },
    {
      "value": "Y",
      "description": "Known to be address of primary consumer",
      "show": true
    },
    {
      "value": "NA",
      "description": "Not available, unknown",
      "show": true
    }
  ]
}
