{
  "agencyFeeCode": [
    { "value": "AFC1", "description": "Agency Fee Code 1", "show": true },
    { "value": "AFC2", "description": "Agency Fee Code 2", "show": true },
    { "value": "AFC3", "description": "Agency Fee Code 3", "show": true }
  ]
}
