{
  "agencyType": [
    { "value": "1", "description": "Collection Agency", "show": true },
    { "value": "2", "description": "Lawyer", "show": true },
    { "value": "3", "description": "In-house  Agency", "show": true },
    { "value": "4", "description": "User Defined", "show": true },
    { "value": "5", "description": "User Defined", "show": true },
    { "value": "6", "description": "User Defined", "show": true },
    { "value": "7", "description": "User Defined", "show": true },
    { "value": "8", "description": "User Defined", "show": true },
    { "value": "9", "description": "Pending", "show": true },
    { "value": "S", "description": "Service", "show": true }
  ]
}
