{
  "batchStatus": [
    {
      "value": "C",
      "description": "Closed",
      "show": true
    },
    {
      "value": "E",
      "description": "Error",
      "show": true
    },
    {
      "value": "O",
      "description": "Open",
      "show": true
    },
    {
      "value": "R",
      "description": "Ready to Post",
      "show": true
    }
  ]
}
