{
  "childcarePaymentFrequency": [
    { "value": "daily", "description": "Daily", "show": true },
    { "value": "monthly", "description": "Monthly", "show": true },
    { "value": "yearly", "description": "Yearly", "show": true }
  ]
}
