{
  "ciicd": [
    {
      "description": "Petition for Chapter 7 bankruptcy",
      "value": "A",
      "show": true
    },
    {
      "description": "Petition for Chapter 12 bankruptcy",
      "value": "B",
      "show": true
    },
    {
      "description": "Petition for Chapter 13 bankruptcy",
      "value": "C",
      "show": true
    },
    {
      "description": "Petition for Chapter 13 bankruptcy",
      "value": "D",
      "show": true
    },
    {
      "description": "Discharged through bankruptcy Chapter 7",
      "value": "E",
      "show": true
    },
    {
      "description": "Discharged through bankruptcy Chapter 11",
      "value": "F",
      "show": true
    },
    {
      "description": "Discharged through bankruptcy Chapter 12",
      "value": "G",
      "show": true
    },
    {
      "description": "Discharged through bankruptcy Chapter 13",
      "value": "H",
      "show": true
    },
    {
      "description": "Chapter 7 bankruptcy dismissed",
      "value": "I",
      "show": true
    },
    {
      "description": "Chapter 11 bankruptcy dismissed",
      "value": "J",
      "show": true
    },
    {
      "description": "Chapter 12 bankruptcy dismissed",
      "value": "K",
      "show": true
    },
    {
      "description": "Chapter 13 bankruptcy dismissed",
      "value": "L",
      "show": true
    },
    {
      "description": "Chapter 7 bankruptcy withdrawn",
      "value": "M",
      "show": true
    },
    {
      "description": "Chapter 11 bankruptcy withdrawn",
      "value": "N",
      "show": true
    },
    {
      "description": "Chapter 12 bankruptcy withdrawn",
      "value": "O",
      "show": true
    },
    {
      "description": "Chapter 13 bankruptcy withdrawn",
      "value": "P",
      "show": true
    },
    {
      "description": "Previously reported indicator removed for bankruptcy (A through P or Z) or personal receivership (1A)",
      "value": "Q",
      "show": true
    },
    {
      "description": "Reaffirmation of debt",
      "value": "R",
      "show": true
    },
    {
      "description": "Previously reported indicator removed for reaffirmation of debt (R), reaffirmation of debt rescinded (V), or lease assumption (2A)",
      "value": "S",
      "show": true
    },
    {
      "description": "Credit grantor cannot locate consumer",
      "value": "T",
      "show": true
    },
    {
      "description": "Consumer now located (previously reported T indicator removed)",
      "value": "U",
      "show": true
    },
    {
      "description": "Chapter 7 reaffirmation of debt rescinded; consumer reneges",
      "value": "V",
      "show": true
    },
    {
      "description": "Bankruptcy - undesignated chapter",
      "value": "Z",
      "show": true
    },
    {
      "description": "Personal receivership",
      "value": "1A",
      "show": true
    },
    {
      "description": "Lease assumption",
      "value": "2A",
      "show": true
    },
    {
      "description": "Retains previously reported value or no new Consumer Information Indicator applies for this reporting period",
      "value": "Blank",
      "show": true
    }
  ]
}
