{
  "class": [
    { "value": "01", "description": "Charged-off", "show": true },
    { "value": "02", "description": "Pre Charged-off", "show": true },
    { "value": "65", "description": "Quantum", "show": true }
  ]
}
