{
    "createByOperator": [
        {
            "value": "Barbara Hiltons",
            "description": "Barbara Hiltons"
        },
        {
            "value": "Thomas Wills",
            "description": "Thomas Wills"
        },
        {
            "value": "Kyle Harris",
            "description": "Kyle Harris"
        },
        {
            "value": "Kari Granleese",
            "description": "Kari Granleese"
        }
    ]
}