{
  "feeBasic": [
    {
      "value": "000",
      "description": "On-going Fees",
      "show": true
    },
    {
      "value": "090",
      "description": "Test Agency",
      "show": true
    },
    {
      "value": "110",
      "description": "DNF Signet",
      "show": true
    },
    {
      "value": "120",
      "description": "5.65 Crown ATT Can DNC",
      "show": true
    },
    {
      "value": "130",
      "description": "11.00 Spring Oaks Health",
      "show": true
    },
    {
      "value": "131",
      "description": "11.00 Spring Oarks Jewelry",
      "show": true
    },
    {
      "value": "132",
      "description": "9.50 Spring Oaks GPCC",
      "show": true
    },
    {
      "value": "140",
      "description": "9.09 CKS GPCC",
      "show": true
    },
    {
      "value": "141",
      "description": "14.00 CKS Other",
      "show": true
    },
    {
      "value": "150",
      "description": "14.76 Galaxy Home Improve",
      "show": true
    }
  ]
}
