{
  "interestRateType": [
    {
      "value": "figure",
      "description": "Figure",
      "show": true
    },
    {
      "value": "code",
      "description": "Code",
      "show": true
    }
  ]
}
