{
  "miscellaneous": [
    { "value": "MC1", "description": "Description 1", "show": true },
    { "value": "MC2", "description": "Description 2", "show": true },
    { "value": "MC3", "description": "Description 3", "show": true }
  ]
}
