{
  "officer": [
    { "value": "O1", "description": "Description 1", "show": true },
    { "value": "02", "description": "Description 2", "show": true },
    { "value": "03", "description": "Description 3", "show": true }
  ]
}
