{
    "orderBy": [
        {
            "value": "asc",
            "description": "Ascending"
        },
        {
            "value": "desc",
            "description": "Descending"
        }
    ]
}