{
  "relation": [
    {
      "description": "Primary Debtor",
      "value": "A",
      "show": true
    },
    {
      "description": "Legal Relationship",
      "value": "L",
      "show": true
    },
    {
      "description": "Co-Maker",
      "value": "S",
      "show": true
    },
    {
      "description": "Authorized User",
      "value": "U",
      "show": true
    }
  ]
}
