{
  "reserve": [
    { "value": "CCCP", "description": "Charged-off principal", "show": true },
    { "value": "IINT", "description": "Charged-off interest", "show": true },
    {
      "value": "PCCP",
      "description": "Pre Charged-off Principal",
      "show": true
    },
    { "value": "PINT", "description": "Pre Charged-off Interest", "show": true }
  ]
}
