{
  "sendCorrespondence": [
    {
      "description": "This person never receives correspondence.",
      "value": "B",
      "show": true
    },
    {
      "description": "This person should not receive correspondence.",
      "value": "N",
      "show": true
    },
    {
      "description": "This person should receive correspondence.",
      "value": "Y",
      "show": true
    }
  ]
}
