{
    "sortByBatch": [
        {
            "value": "batchDate",
            "description": "Batch Date"
        },
        {
            "value": "batchNumber",
            "description": "Batch Number"
        },
        {
            "value": "numberOfItems",
            "description": "Batch Item"
        },
        {
            "value": "transactionAmount",
            "description": "Batch Amount"
        },
        {
            "value": "currentItemType",
            "description": "Current Item"
        },
        {
            "value": "currentItemAmount",
            "description": "Current Amount"
        }
    ]
}