{
    "sourceId": [
      {
        "value": "AGYUPL",
        "description": "Batch was transmitted as a file by an agency.",
        "show": true
      },
      {
        "value": "FDR",
        "description": "Batch was transmitted as a file by First Data.",
        "show": true
      }
    ]
  }
  