{
  "transactionType": [
    {
      "value": "D",
      "description": "Direct Payments",
      "show": true
    },
    {
      "value": "G",
      "description": "Gross Payment",
      "show": true
    },
    {
      "value": "N",
      "description": "Net Payment",
      "show": true
    },
    {
      "value": "S",
      "description": "Gross Payment From a Service",
      "show": true
    },
    {
      "value": "T",
      "description": "Net Payment From a Service",
      "show": true
    }
  ]
}