{
  "transactionList": [
    {
      "id": 0,
      "transDate": "02/01/2022",
      "description": "Credit Card",
      "transType": "Charge",
      "agencyFee": "",
      "principal": "100",
      "interest": "100",
      "otherIncome": "200",
      "costs": "200"
    },
    {
      "id": 1,
      "transDate": "02/02/2022",
      "description": "Charge-off",
      "transType": "Charge",
      "agencyFee": "",
      "principal": "",
      "interest": "",
      "otherIncome": "50",
      "costs": ""
    },
    {
      "id": 2,
      "transDate": "02/03/2022",
      "description": "Direct Payment",
      "transType": "Recovery",
      "agencyFee": "20",
      "principal": "",
      "interest": "30",
      "otherIncome": "",
      "costs": ""
    },
    {
      "id": 3,
      "transDate": "02/04/2022",
      "description": "Credit Card",
      "transType": "Charge",
      "agencyFee": "",
      "principal": "100",
      "interest": "",
      "otherIncome": "",
      "costs": ""
    },
    {
      "id": 4,
      "transDate": "02/05/2022",
      "description": "Card Payment",
      "transType": "Recovery",
      "agencyFee": "",
      "principal": "300",
      "interest": "",
      "otherIncome": "",
      "costs": ""
    },
    {
      "id": 5,
      "transDate": "02/01/2022",
      "description": "Credit Card",
      "transType": "Charge",
      "agencyFee": "",
      "principal": "100",
      "interest": "100",
      "otherIncome": "200",
      "costs": "200"
    },
    {
      "id": 6,
      "transDate": "02/02/2022",
      "description": "Charge-off",
      "transType": "Charge",
      "agencyFee": "",
      "principal": "",
      "interest": "",
      "otherIncome": "50",
      "costs": ""
    },
    {
      "id": 7,
      "transDate": "02/03/2022",
      "description": "Direct Payment",
      "transType": "Recovery",
      "agencyFee": "20",
      "principal": "",
      "interest": "30",
      "otherIncome": "",
      "costs": ""
    },
    {
      "id": 8,
      "transDate": "02/04/2022",
      "description": "Credit Card",
      "transType": "Charge",
      "agencyFee": "",
      "principal": "100",
      "interest": "",
      "otherIncome": "",
      "costs": ""
    },
    {
      "id": 9,
      "transDate": "02/05/2022",
      "description": "Card Payment",
      "transType": "Recovery",
      "agencyFee": "",
      "principal": "300",
      "interest": "",
      "otherIncome": "",
      "costs": ""
    },
    {
      "id": 10,
      "transDate": "02/01/2022",
      "description": "Credit Card",
      "transType": "Charge",
      "agencyFee": "",
      "principal": "100",
      "interest": "100",
      "otherIncome": "200",
      "costs": "200"
    },
    {
      "id": 11,
      "transDate": "02/02/2022",
      "description": "Charge-off",
      "transType": "Charge",
      "agencyFee": "",
      "principal": "",
      "interest": "",
      "otherIncome": "50",
      "costs": ""
    },
    {
      "id": 12,
      "transDate": "02/03/2022",
      "description": "Direct Payment",
      "transType": "Recovery",
      "agencyFee": "20",
      "principal": "",
      "interest": "30",
      "otherIncome": "",
      "costs": ""
    },
    {
      "id": 13,
      "transDate": "02/04/2022",
      "description": "Credit Card",
      "transType": "Charge",
      "agencyFee": "",
      "principal": "100",
      "interest": "",
      "otherIncome": "",
      "costs": ""
    },
    {
      "id": 14,
      "transDate": "02/05/2022",
      "description": "Card Payment",
      "transType": "Recovery",
      "agencyFee": "",
      "principal": "300",
      "interest": "",
      "otherIncome": "",
      "costs": ""
    }
  ]
}
