{
  "updCollector": [
    { "value": "Y", "description": "Yes - Add the Agency Code automatically to the Collector Codes list." },
    { "value": "N", "description": "No - Do not add the Agency Code automatically to the Collector Codes list." }
  ]
}
