{
  "fields": [
    {
      "name": "accountNumberAccounts",
      "type": "AccNbrControl",
      "label": "txt_account_number",
      "dataField": "accNumber"
    },
    {
      "name": "last4SSNAccounts",
      "type": "TextViewControl",
      "label": "txt_last_4_ssn",
      "dataField": "last4SSN"
    },
    {
      "name": "originalLoanNumberAccounts",
      "type": "AccNbrControl",
      "label": "txt_original_loan_number",
      "dataField": "originalLoan"
    },
    {
      "name": "statusAccounts",
      "type": "BadgeControl",
      "label": "txt_status",
      "dataField": "status"
    },
    {
      "name": "currentBalanceAccounts",
      "type": "TextViewControl",
      "label": "txt_current_balance",
      "dataField": "currentBalance"
    },
    {
      "name": "calendarCodeAccounts",
      "type": "TextViewControl",
      "label": "txt_calendar_code",
      "dataField": "calendarCode"
    }
  ]
}