{
  "fields": [
    {
      "name": "bankruptcyInfoDebtorCaseCaseHeading",
      "type": "HeadingControl",
      "label": "txt_case",
      "as": "h6"
    },
    {
      "name": "bankruptcyInfoDebtorCaseCaseChapter",
      "type": "TextViewControl",
      "label": "txt_chapter",
      "dataField": "chapter"
    },
    {
      "name": "bankruptcyInfoDebtorCaseCaseChapterID",
      "type": "TextViewControl",
      "label": "txt_chapter_id",
      "dataField": "chapterID"
    },
    {
      "name": "bankruptcyInfoDebtorCaseCaseDistrictAndState",
      "type": "TextViewControl",
      "label": "txt_district_and_state",
      "dataField": "districtAndState"
    },
    {
      "name": "bankruptcyInfoDebtorCaseCaseCollateral",
      "type": "TextViewControl",
      "label": "txt_collateral",
      "dataField": "collateral"
    },
    {
      "name": "bankruptcyInfoDebtorCaseCasePaymentAmount",
      "type": "TextViewControl",
      "label": "txt_payment_amount",
      "dataField": "paymentAmount"
    },
    {
      "name": "bankruptcyInfoDebtorCaseCaseStartDate",
      "type": "TextViewControl",
      "label": "txt_start_date",
      "dataField": "startDate"
    },
    {
      "name": "bankruptcyInfoDebtorCaseCasePaymentScheduleFrequency",
      "type": "TextViewControl",
      "label": "txt_payment_schedule_frequency",
      "dataField": "paymentScheduleFrequency"
    },
    {
      "name": "bankruptcyInfoDebtorCaseCaseDatesHeadingDivider",
      "type": "DividerControl"
    },
    {
      "name": "bankruptcyInfoDebtorCaseCaseDatesHeading",
      "type": "HeadingControl",
      "label": "txt_case_dates",
      "as": "h6"
    },
    {
      "name": "bankruptcyInfoDebtorCaseCaseDatesFileDate",
      "type": "TextViewControl",
      "label": "txt_file_date",
      "dataField": "fileDate"
    },
    {
      "name": "bankruptcyInfoDebtorCaseCaseDatesFirstMeetingDate",
      "type": "TextViewControl",
      "label": "txt_first_meeting_date",
      "dataField": "firstMeetingDate"
    },
    {
      "name": "bankruptcyInfoDebtorCaseCaseDatesProofOfClaimDate",
      "type": "TextViewControl",
      "label": "txt_proof_of_claim_date",
      "dataField": "proofOfClaimDate"
    },
    {
      "name": "bankruptcyInfoDebtorCaseCaseDatesReaffirmationDate",
      "type": "TextViewControl",
      "label": "txt_reaffirmation_date",
      "dataField": "reaffirmationDate"
    },
    {
      "name": "bankruptcyInfoDebtorCaseCaseDatesDischargeDate",
      "type": "TextViewControl",
      "label": "txt_discharge_date",
      "dataField": "dischargeDate"
    },
    {
      "name": "bankruptcyInfoDebtorCaseCaseDatesReliefOfStayDate",
      "type": "TextViewControl",
      "label": "txt_relief_of_stay_date",
      "dataField": "reliefOfStayDate"
    },
    {
      "name": "bankruptcyInfoDebtorCaseCaseDatesDismissalDate",
      "type": "TextViewControl",
      "label": "txt_dismissal_date",
      "dataField": "dismissalDate"
    },
    {
      "name": "bankruptcyInfoDebtorCaseCaseDatesWithdrawnDate",
      "type": "TextViewControl",
      "label": "txt_withdrawn_date",
      "dataField": "withdrawnDate"
    },
    {
      "name": "bankruptcyInfoDebtorCasePreviousCaseHeadingDivider",
      "type": "DividerControl"
    },
    {
      "name": "bankruptcyInfoDebtorCasePreviousCaseHeading",
      "type": "HeadingControl",
      "label": "txt_previous_case",
      "as": "h6"
    },
    {
      "name": "bankruptcyInfoDebtorCasePreviousCaseChapter",
      "type": "TextViewControl",
      "label": "txt_chapter",
      "dataField": "previousChapter"
    },
    {
      "name": "bankruptcyInfoDebtorCasePreviousCaseChapterID",
      "type": "TextViewControl",
      "label": "txt_chapter_id",
      "dataField": "previousChapterID"
    },
    {
      "name": "bankruptcyInfoDebtorCasePreviousCaseDistrictAndState",
      "type": "TextViewControl",
      "label": "txt_district_and_state",
      "dataField": "previousDistrictAndState"
    },
    {
      "name": "bankruptcyInfoDebtorCasePreviousCaseDatesHeadingDivider",
      "type": "DividerControl"
    },
    {
      "name": "bankruptcyInfoDebtorCasePreviousCaseDatesHeading",
      "type": "HeadingControl",
      "label": "txt_previous_case_dates",
      "as": "h6"
    },
    {
      "name": "bankruptcyInfoDebtorCasePreviousCaseDatesFileDate",
      "type": "TextViewControl",
      "label": "txt_file_date",
      "dataField": "previousFileDate"
    },
    {
      "name": "bankruptcyInfoDebtorCasePreviousCaseDatesDischargeDate",
      "type": "TextViewControl",
      "label": "txt_discharge_date",
      "dataField": "previousDischargeDate"
    },
    {
      "name": "bankruptcyInfoDebtorCasePreviousCaseDatesDismissalDate",
      "type": "TextViewControl",
      "label": "txt_dismissal_date",
      "dataField": "previousDismissalDate"
    },
    {
      "name": "bankruptcyInfoDebtorCasePreviousCaseDatesConvertedDate",
      "type": "TextViewControl",
      "label": "txt_converted_date",
      "dataField": "previousConvertedDate"
    },
    {
      "name": "bankruptcyInfoDebtorCasePreviousCaseDatesShortField1",
      "type": "TextViewControl",
      "label": "txt_short_field_1",
      "dataField": "shortField1"
    },
    {
      "name": "bankruptcyInfoDebtorCasePreviousCaseDatesDateField1",
      "type": "TextViewControl",
      "label": "txt_date_field_1",
      "dataField": "dateField1"
    },
    {
      "name": "bankruptcyInfoDebtorCasePreviousCaseDatesLongField1",
      "type": "TextViewControl",
      "label": "txt_long_field_1",
      "dataField": "longField1"
    },
    {
      "name": "bankruptcyInfoDebtorCasePreviousCaseDatesAmount1",
      "type": "TextViewControl",
      "label": "txt_amount_1",
      "dataField": "amount1"
    },
    {
      "name": "bankruptcyInfoDebtorCasePreviousCaseDatesShortField2",
      "type": "TextViewControl",
      "label": "txt_short_field_2",
      "dataField": "shortField2"
    },
    {
      "name": "bankruptcyInfoDebtorCasePreviousCaseDatesDateField2",
      "type": "TextViewControl",
      "label": "txt_date_field_2",
      "dataField": "dateField2"
    },
    {
      "name": "bankruptcyInfoDebtorCasePreviousCaseDatesLongField2",
      "type": "TextViewControl",
      "label": "txt_long_field_2",
      "dataField": "longField2"
    },
    {
      "name": "bankruptcyInfoDebtorCasePreviousCaseDatesAmount2",
      "type": "TextViewControl",
      "label": "txt_amount_2",
      "dataField": "amount2"
    }
  ]
}
