{
    "fields": [
        {
            "name": "recoveryIndicatorFinancialInformation",
            "type": "TextViewControl",
            "label": "txt_recovery_indicator",
            "dataField": "recoveryIndicator"
        },
        {
            "name": "responsibilityCenterFinancialInformation",
            "type": "TextViewControl",
            "label": "txt_responsibility_center",
            "dataField": "responsibilityCenter"
        },
        {
            "name": "highestStatementBalanceFinancialInformation",
            "type": "TextViewControl",
            "label": "txt_highest_statement_balance",
            "dataField": "highestStatementBalance"
        },
        {
            "name": "classOneFinancialInformation",
            "type": "TextViewControl",
            "label": "txt_class_1",
            "dataField": "classOne"
        },
        {
            "name": "subClassOneFinancialInformation",
            "type": "TextViewControl",
            "label": "txt_sub_class_1",
            "dataField": "subClassOne"
        },
        {
            "name": "reserveOneFinancialInformation",
            "type": "TextViewControl",
            "label": "txt_reserve_1",
            "dataField": "reserveOne"
        },
        {
            "name": "reserveOnePOICFinancialInformation",
            "type": "TextViewControl",
            "label": "txt_reserve_1_poic",
            "dataField": "reserveOnePOIC"
        },
        {
            "name": "reserveOneAmountFinancialInformation",
            "type": "TextViewControl",
            "label": "txt_reserve_1_amount",
            "dataField": "reserveOneAmount"
        },
        {
            "name": "classTwoFinancialInformation",
            "type": "TextViewControl",
            "label": "txt_class_2",
            "dataField": "classTwo"
        },
        {
            "name": "subClassTwoFinancialInformation",
            "type": "TextViewControl",
            "label": "txt_sub_class_2",
            "dataField": "subClassTwo"
        },
        {
            "name": "reserveTwoFinancialInformation",
            "type": "TextViewControl",
            "label": "txt_reserve_2",
            "dataField": "reserveTwo"
        },
        {
            "name": "reserveTwoPOICFinancialInformation",
            "type": "TextViewControl",
            "label": "txt_reserve_2_poic",
            "dataField": "reserveTwoPOIC"
        },
        {
            "name": "reserveTwoAmountFinancialInformation",
            "type": "TextViewControl",
            "label": "txt_reserve_2_amount",
            "dataField": "classTwoAmount"
        },
        {
            "name": "classThreeFinancialInformation",
            "type": "TextViewControl",
            "label": "txt_class_3",
            "dataField": "classThree"
        },
        {
            "name": "subClassThreeFinancialInformation",
            "type": "TextViewControl",
            "label": "txt_sub_class_3",
            "dataField": "subClassThree"
        },
        {
            "name": "reserveThreeFinancialInformation",
            "type": "TextViewControl",
            "label": "txt_reserve_3",
            "dataField": "reserveThree"
        },
        {
            "name": "reserveThreePOICFinancialInformation",
            "type": "TextViewControl",
            "label": "txt_reserve_3_poic",
            "dataField": "reserveThreePOIC"
        },
        {
            "name": "reserveThreeAmountFinancialInformation",
            "type": "TextViewControl",
            "label": "txt_reserve_3_amount",
            "dataField": "reserveThreeAmount"
        },
        {
            "name": "otherFinancialInformation",
            "type": "TextViewControl",
            "label": "txt_other",
            "dataField": "other"
        },
        {
            "name": "otherPOICFinancialInformation",
            "type": "TextViewControl",
            "label": "txt_other_poic",
            "dataField": "otherPOIC"
        },
        {
            "name": "otherAmountFinancialInformation",
            "type": "TextViewControl",
            "label": "txt_other_amount",
            "dataField": "otherAmount"
        },
        {
            "name": "interestFinancialInformation",
            "type": "TextViewControl",
            "label": "txt_interest",
            "dataField": "interest"
        },
        {
            "name": "interestPOICFinancialInformation",
            "type": "TextViewControl",
            "label": "txt_interest_poic",
            "dataField": "interestPOIC"
        },
        {
            "name": "interestAmountFinancialInformation",
            "type": "TextViewControl",
            "label": "txt_interest_amount",
            "dataField": "interestAmount"
        },
        {
            "name": "costFinancialInformation",
            "type": "TextViewControl",
            "label": "txt_cost",
            "dataField": "cost"
        },
        {
            "name": "costPOICFinancialInformation",
            "type": "TextViewControl",
            "label": "txt_cost_poic",
            "dataField": "costPOIC"
        },
        {
            "name": "amountFinancialInformation",
            "type": "TextViewControl",
            "label": "txt_amount",
            "dataField": "amount"
        },
        {
            "name": "dividerControl",
            "type": "DividerControl"
        }
    ]
}