{
  "fields": [
    {
      "name": "totalCharges",
      "type": "TextViewControl",
      "label": "txt_total_charges",
      "dataField": "totalCharges",
      "options": {
        "direction": "horizontal",
        "format": "amount",
        "valueBold": true
      }
    },
    {
      "name": "totalRecoveries",
      "type": "TextViewControl",
      "label": "txt_total_recoveries",
      "dataField": "totalRecoveries",
      "options": {
        "direction": "horizontal",
        "format": "amount",
        "valueBold": true
      }
    },
    {
      "name": "totalRemainingBalance",
      "type": "TextViewControl",
      "label": "txt_total_remaining_balance",
      "dataField": "totalRemainingBalance",
      "options": {
        "direction": "horizontal",
        "format": "amount",
        "valueBold": true
      }
    }
  ]
}
