{
  "fields": [
    {
      "name": "queueList_lastWorkDate",
      "type": "TextViewControl",
      "label": "txt_last_work_date",
      "dataField": "lastWorkDate"
    },
    {
      "name": "queueList_totalNumberOfAccounts",
      "type": "TextViewControl",
      "label": "txt_total_number_of_accounts",
      "dataField": "totalNumberOfAccounts"
    },
    {
      "name": "queueList_totalOutstandingBalanceAmount",
      "type": "TextViewControl",
      "label": "txt_total_outstanding_balance_amount",
      "dataField": "totalOutstandingBalanceAmount"
    },
    {
      "name": "queueList_daysBefore",
      "type": "TextViewControl",
      "label": "txt_days_before",
      "dataField": "daysBefore"
    },
    {
      "name": "queueList_daysAfter",
      "type": "TextViewControl",
      "label": "txt_days_after",
      "dataField": "daysAfter"
    },
    {
      "name": "queueList_assignedTo",
      "type": "TextViewControl",
      "label": "txt_assigned_to",
      "dataField": "assignedTo"
    }
  ]
}