{
  "fields": [
    {
      "name": "calendarCode",
      "type": "DropDownControl",
      "label": "txt_calendar_code",
      "dataField": "calendarCode",
      "dataSourceName": "getMonitorCriteriaCalendarCode",
      "textField": "description",
      "props": {
        "required": true
      },
      "validationRules": [
        {
          "ruleName": "Required",
          "errorMsg": "txt_calendar_code_is_required"
        }
      ]
    },
    {
      "name": "noteCodes",
      "type": "MultiSelectControl",
      "label": "txt_note_codes",
      "dataField": "noteCodes",
      "textField": "description",
      "dataSourceName": "getMonitorCriteriaNoteCodes",
      "props": {
        "required": true
      },
      "validationRules": [
        {
          "ruleName": "Required",
          "errorMsg": "txt_note_codes_is_required"
        }
      ]
    },
    {
      "name": "calendarInterval",
      "type": "NumericControl",
      "label": "txt_enter_counts",
      "dataField": "calendarInterval",
      "validationRules": []
    },
    {
      "name": "calendarIntervalUnit",
      "type": "DropDownControl",
      "dataSourceName": "getMonitorCriteriaIntervalUnit",
      "textField": "value",
      "dataField": "calendarIntervalUnit",
      "uniqueField": "value"
    },
    {
      "name": "paymentDeleteCalendarCode",
      "type": "GroupRadioControl",
      "dataField": "paymentDeleteCalendarCode"
    },
    {
      "name": "nFSDeleteCalendarcheck",
      "type": "GroupRadioControl",
      "dataField": "nsfDeleteCalendarCode"
    }
  ]
}
