{
  "fields": [
    {
      "name": "calendarCode",
      "type": "TextValueControl",
      "label": "txt_calendar_code",
      "dataField": "calendarCode"
    },
    {
      "name": "calendarInterval",
      "type": "TextValueControl",
      "label": "txt_calendar_interval",
      "dataField": "calendarInterval"
    },
    {
      "name": "nsfDeleteCalendarCode",
      "type": "TextValueControl",
      "label": "txt_nsf_delete_calendar_code",
      "dataField": "nsfDeleteCalendarCode"
    },
    {
      "name": "noteCodes",
      "type": "TagLineControl",
      "label": "txt_note_code",
      "dataField": "noteCodes"
    },
    {
      "name": "paymentDeleteCalendarCode",
      "type": "TextValueControl",
      "label": "txt_payment_delete_code",
      "dataField": "paymentDeleteCalendarCode"
    }
  ]
}
